…
The next step involves combining these city-specific datasets into a
single dataset. Since our prior checks confirmed that all individual
city datasets share the same columns, we utilize bind_rows function to
combine them into a single comprehensive dataset for easier analysis
across multiple dimensions.

``` r
airbnb <- bind_rows(amsterdam, athens, barcelona, berlin, budapest, lisbon, london, paris, rome, vienna) %>% select(-c(...1, room_shared, room_private)) %>% select(city, day_type, everything())
airbnb
```

    ## # A tibble: 51,707 × 19
    ##    city      day_type realSum room_type  person_capacity host_is_superhost multi
    ##    <chr>     <chr>      <dbl> <chr>                <dbl> <lgl>             <dbl>
    ##  1 Amsterdam Weekday     194. Private r…               2 FALSE                 1
    ##  2 Amsterdam Weekday     344. Private r…               4 FALSE                 0
    ##  3 Amsterdam Weekday     264. Private r…               2 FALSE                 0
    ##  4 Amsterdam Weekday     434. Private r…               4 FALSE                 0
    ##  5 Amsterdam Weekday     486. Private r…               2 TRUE                  0
    ##  6 Amsterdam Weekday     553. Private r…               3 FALSE                 0
    ##  7 Amsterdam Weekday     215. Private r…               2 FALSE                 0
    ##  8 Amsterdam Weekday    2771. Entire ho…               4 TRUE                  0
    ##  9 Amsterdam Weekday    1002. Entire ho…               4 FALSE                 0
    ## 10 Amsterdam Weekday     277. Private r…               2 FALSE                 1
    ## # ℹ 51,697 more rows
    ## # ℹ 12 more variables: biz <dbl>, cleanliness_rating <dbl>,
    ## #   guest_satisfaction_overall <dbl>, bedrooms <dbl>, dist <dbl>,
    ## #   metro_dist <dbl>, attr_index <dbl>, attr_index_norm <dbl>,
    ## #   rest_index <dbl>, rest_index_norm <dbl>, lng <dbl>, lat <dbl>
…
